Mon, 21 Jan 2019 14:22:12 DEBUG    Config file loaded : config.py
Mon, 21 Jan 2019 14:22:12 DEBUG    Config file loaded : config.py
Mon, 21 Jan 2019 14:22:12 DEBUG    Config file loaded : config.py
Mon, 21 Jan 2019 14:22:12 DEBUG    MODBUS Config loadedMODBUS.py
Mon, 21 Jan 2019 14:22:12 DEBUG    STARTING WIFI SENSORS-: main.py
