Mon, 28 Jan 2019 12:17:54 DEBUG    Config file loaded : config.py
Mon, 28 Jan 2019 12:17:54 DEBUG    Config file loaded : config.py
Mon, 28 Jan 2019 12:17:55 DEBUG    Config file loaded : config.py
Mon, 28 Jan 2019 12:17:55 DEBUG    MODBUS Config loadedMODBUS.py
