Wed, 30 Jan 2019 19:52:44 DEBUG    Config file loaded : config.py
Wed, 30 Jan 2019 19:52:44 DEBUG    Config file loaded : config.py
Wed, 30 Jan 2019 19:52:44 DEBUG    Config file loaded : config.py
Wed, 30 Jan 2019 19:52:44 DEBUG    MODBUS Config loadedMODBUS.py
