Mon, 28 Jan 2019 12:44:57 DEBUG    Config file loaded : config.py
Mon, 28 Jan 2019 12:44:57 DEBUG    Config file loaded : config.py
Mon, 28 Jan 2019 12:44:58 DEBUG    Config file loaded : config.py
Mon, 28 Jan 2019 12:44:58 DEBUG    MODBUS Config loadedMODBUS.py
