Wed, 21 Nov 2018 21:06:30 DEBUG    Config file loaded : config.py
Wed, 21 Nov 2018 21:06:30 DEBUG    Config file loaded : config.py
Wed, 21 Nov 2018 21:06:30 DEBUG    Initializing MQTT layer...
Wed, 21 Nov 2018 21:06:30 DEBUG    Registering internal event callbacks to MQTT layer...
Wed, 21 Nov 2018 21:06:30 INFO     MqttCore initialized
Wed, 21 Nov 2018 21:06:30 INFO     Client id: SDM120_ENERGY_METER
Wed, 21 Nov 2018 21:06:30 INFO     Protocol version: MQTTv3.1.1
Wed, 21 Nov 2018 21:06:30 INFO     Authentication type: TLSv1.2 certificate based Mutual Auth.
Wed, 21 Nov 2018 21:06:30 INFO     Configuring endpoint...
Wed, 21 Nov 2018 21:06:30 DEBUG    Config file loaded : config.py
Wed, 21 Nov 2018 21:06:30 DEBUG    MODBUS Config loadedMODBUS.py
