Mon, 19 Nov 2018 21:15:41 DEBUG    Config file loaded : config.py
Mon, 19 Nov 2018 21:15:41 DEBUG    Config file loaded : config.py
Mon, 19 Nov 2018 21:15:41 DEBUG    Initializing MQTT layer...
Mon, 19 Nov 2018 21:15:41 DEBUG    Registering internal event callbacks to MQTT layer...
Mon, 19 Nov 2018 21:15:41 INFO     MqttCore initialized
Mon, 19 Nov 2018 21:15:41 INFO     Client id: SDM120_ENERGY_METER
Mon, 19 Nov 2018 21:15:41 INFO     Protocol version: MQTTv3.1.1
Mon, 19 Nov 2018 21:15:41 INFO     Authentication type: TLSv1.2 certificate based Mutual Auth.
Mon, 19 Nov 2018 21:15:41 INFO     Configuring endpoint...
Mon, 19 Nov 2018 21:15:41 DEBUG    MODBUS Config loadedMODBUS.py
Mon, 19 Nov 2018 21:15:41 INFO     Configuring certificates...
Mon, 19 Nov 2018 21:15:41 INFO     Configuring reconnect back off timing...
Mon, 19 Nov 2018 21:15:41 INFO     Base quiet time: 1.000000 sec
Mon, 19 Nov 2018 21:15:41 INFO     Max quiet time: 32.000000 sec
Mon, 19 Nov 2018 21:15:41 INFO     Stable connection time: 20.000000 sec
Mon, 19 Nov 2018 21:15:41 INFO     Configuring offline requests queueing: max queue size: -1
Mon, 19 Nov 2018 21:15:41 INFO     Configuring offline requests queue draining interval: 0.500000 sec
Mon, 19 Nov 2018 21:15:41 INFO     Configuring connect/disconnect time out: 10.000000 sec
Mon, 19 Nov 2018 21:15:41 INFO     Configuring MQTT operation time out: 5.000000 sec
Mon, 19 Nov 2018 21:15:41 INFO     Performing sync connect...
Mon, 19 Nov 2018 21:15:41 INFO     Performing async connect...
Mon, 19 Nov 2018 21:15:41 INFO     Keep-alive: 600.000000 sec
Mon, 19 Nov 2018 21:15:41 DEBUG    Event consuming thread started
Mon, 19 Nov 2018 21:15:41 DEBUG    Passing in general notification callbacks to internal client...
Mon, 19 Nov 2018 21:15:41 DEBUG    Filling in fixed event callbacks: CONNACK, DISCONNECT, MESSAGE
Mon, 19 Nov 2018 21:15:43 DEBUG    Starting network I/O thread...
Mon, 19 Nov 2018 21:15:43 DEBUG    Produced [connack] event
Mon, 19 Nov 2018 21:15:43 DEBUG    Dispatching [connack] event
Mon, 19 Nov 2018 21:15:43 DEBUG    No need for recovery
Mon, 19 Nov 2018 21:15:43 DEBUG    Invoking custom event callback...
Mon, 19 Nov 2018 21:15:43 INFO     Performing sync publish...
Mon, 19 Nov 2018 21:15:43 DEBUG    Produced [puback] event
Mon, 19 Nov 2018 21:15:43 DEBUG    Dispatching [puback] event
Mon, 19 Nov 2018 21:15:43 INFO     Performing sync publish...
Mon, 19 Nov 2018 21:15:43 DEBUG    Produced [puback] event
Mon, 19 Nov 2018 21:15:43 DEBUG    Dispatching [puback] event
Mon, 19 Nov 2018 21:15:43 INFO     Performing sync publish...
Mon, 19 Nov 2018 21:15:43 DEBUG    Produced [puback] event
Mon, 19 Nov 2018 21:15:43 DEBUG    Dispatching [puback] event
Mon, 19 Nov 2018 21:15:43 INFO     Performing sync publish...
Mon, 19 Nov 2018 21:15:43 DEBUG    Produced [puback] event
Mon, 19 Nov 2018 21:15:43 DEBUG    Dispatching [puback] event
Mon, 19 Nov 2018 21:15:43 INFO     Performing sync publish...
Mon, 19 Nov 2018 21:15:43 DEBUG    Produced [puback] event
Mon, 19 Nov 2018 21:15:43 DEBUG    Dispatching [puback] event
Mon, 19 Nov 2018 21:15:49 INFO     Performing sync publish...
Mon, 19 Nov 2018 21:15:49 DEBUG    Produced [puback] event
Mon, 19 Nov 2018 21:15:49 DEBUG    Dispatching [puback] event
Mon, 19 Nov 2018 21:15:49 INFO     Performing sync publish...
Mon, 19 Nov 2018 21:15:49 DEBUG    Produced [puback] event
Mon, 19 Nov 2018 21:15:49 DEBUG    Dispatching [puback] event
Mon, 19 Nov 2018 21:15:49 INFO     Performing sync publish...
Mon, 19 Nov 2018 21:15:49 DEBUG    Dispatching [puback] event
Mon, 19 Nov 2018 21:15:49 DEBUG    Produced [puback] event
Mon, 19 Nov 2018 21:15:49 INFO     Performing sync publish...
Mon, 19 Nov 2018 21:15:49 DEBUG    Produced [puback] event
Mon, 19 Nov 2018 21:15:49 DEBUG    Dispatching [puback] event
Mon, 19 Nov 2018 21:15:49 INFO     Performing sync publish...
Mon, 19 Nov 2018 21:15:49 DEBUG    Produced [puback] event
Mon, 19 Nov 2018 21:15:49 DEBUG    Dispatching [puback] event
Mon, 19 Nov 2018 21:15:54 INFO     Performing sync publish...
Mon, 19 Nov 2018 21:15:54 DEBUG    Produced [puback] event
Mon, 19 Nov 2018 21:15:54 DEBUG    Dispatching [puback] event
Mon, 19 Nov 2018 21:15:54 INFO     Performing sync publish...
Mon, 19 Nov 2018 21:15:54 DEBUG    Produced [puback] event
Mon, 19 Nov 2018 21:15:54 DEBUG    Dispatching [puback] event
Mon, 19 Nov 2018 21:15:54 INFO     Performing sync publish...
Mon, 19 Nov 2018 21:15:54 DEBUG    Produced [puback] event
Mon, 19 Nov 2018 21:15:54 DEBUG    Dispatching [puback] event
Mon, 19 Nov 2018 21:15:54 INFO     Performing sync publish...
Mon, 19 Nov 2018 21:15:54 DEBUG    Produced [puback] event
Mon, 19 Nov 2018 21:15:54 DEBUG    Dispatching [puback] event
Mon, 19 Nov 2018 21:15:54 INFO     Performing sync publish...
Mon, 19 Nov 2018 21:15:54 DEBUG    Produced [puback] event
Mon, 19 Nov 2018 21:15:54 DEBUG    Dispatching [puback] event
Mon, 19 Nov 2018 21:15:59 INFO     Performing sync publish...
Mon, 19 Nov 2018 21:15:59 DEBUG    Produced [puback] event
Mon, 19 Nov 2018 21:15:59 DEBUG    Dispatching [puback] event
Mon, 19 Nov 2018 21:15:59 INFO     Performing sync publish...
Mon, 19 Nov 2018 21:15:59 DEBUG    Produced [puback] event
Mon, 19 Nov 2018 21:15:59 DEBUG    Dispatching [puback] event
Mon, 19 Nov 2018 21:15:59 INFO     Performing sync publish...
Mon, 19 Nov 2018 21:15:59 DEBUG    Produced [puback] event
Mon, 19 Nov 2018 21:15:59 DEBUG    Dispatching [puback] event
Mon, 19 Nov 2018 21:15:59 INFO     Performing sync publish...
Mon, 19 Nov 2018 21:15:59 DEBUG    Produced [puback] event
Mon, 19 Nov 2018 21:15:59 DEBUG    Dispatching [puback] event
Mon, 19 Nov 2018 21:15:59 INFO     Performing sync publish...
Mon, 19 Nov 2018 21:15:59 DEBUG    Produced [puback] event
Mon, 19 Nov 2018 21:15:59 DEBUG    Dispatching [puback] event
Mon, 19 Nov 2018 21:16:03 DEBUG    stableConnection: Resetting the backoff time to: 1 sec.
Mon, 19 Nov 2018 21:16:04 INFO     Performing sync publish...
Mon, 19 Nov 2018 21:16:04 DEBUG    Produced [puback] event
Mon, 19 Nov 2018 21:16:04 DEBUG    Dispatching [puback] event
Mon, 19 Nov 2018 21:16:04 INFO     Performing sync publish...
Mon, 19 Nov 2018 21:16:04 DEBUG    Produced [puback] event
Mon, 19 Nov 2018 21:16:04 DEBUG    Dispatching [puback] event
Mon, 19 Nov 2018 21:16:04 INFO     Performing sync publish...
Mon, 19 Nov 2018 21:16:04 DEBUG    Produced [puback] event
Mon, 19 Nov 2018 21:16:04 DEBUG    Dispatching [puback] event
Mon, 19 Nov 2018 21:16:04 INFO     Performing sync publish...
Mon, 19 Nov 2018 21:16:04 DEBUG    Produced [puback] event
Mon, 19 Nov 2018 21:16:04 DEBUG    Dispatching [puback] event
Mon, 19 Nov 2018 21:16:04 INFO     Performing sync publish...
Mon, 19 Nov 2018 21:16:04 DEBUG    Produced [puback] event
Mon, 19 Nov 2018 21:16:04 DEBUG    Dispatching [puback] event
Mon, 19 Nov 2018 21:16:09 INFO     Performing sync publish...
Mon, 19 Nov 2018 21:16:09 DEBUG    Produced [puback] event
Mon, 19 Nov 2018 21:16:09 DEBUG    Dispatching [puback] event
Mon, 19 Nov 2018 21:16:09 INFO     Performing sync publish...
Mon, 19 Nov 2018 21:16:09 DEBUG    Produced [puback] event
Mon, 19 Nov 2018 21:16:09 DEBUG    Dispatching [puback] event
Mon, 19 Nov 2018 21:16:09 INFO     Performing sync publish...
Mon, 19 Nov 2018 21:16:09 DEBUG    Produced [puback] event
Mon, 19 Nov 2018 21:16:09 DEBUG    Dispatching [puback] event
Mon, 19 Nov 2018 21:16:09 INFO     Performing sync publish...
Mon, 19 Nov 2018 21:16:09 DEBUG    Produced [puback] event
Mon, 19 Nov 2018 21:16:09 DEBUG    Dispatching [puback] event
Mon, 19 Nov 2018 21:16:09 INFO     Performing sync publish...
Mon, 19 Nov 2018 21:16:09 DEBUG    Produced [puback] event
Mon, 19 Nov 2018 21:16:09 DEBUG    Dispatching [puback] event
Mon, 19 Nov 2018 21:16:14 INFO     Performing sync publish...
Mon, 19 Nov 2018 21:16:14 DEBUG    Produced [puback] event
Mon, 19 Nov 2018 21:16:14 DEBUG    Dispatching [puback] event
Mon, 19 Nov 2018 21:16:14 INFO     Performing sync publish...
Mon, 19 Nov 2018 21:16:14 DEBUG    Produced [puback] event
Mon, 19 Nov 2018 21:16:14 DEBUG    Dispatching [puback] event
Mon, 19 Nov 2018 21:16:14 INFO     Performing sync publish...
Mon, 19 Nov 2018 21:16:14 DEBUG    Produced [puback] event
Mon, 19 Nov 2018 21:16:14 DEBUG    Dispatching [puback] event
Mon, 19 Nov 2018 21:16:14 INFO     Performing sync publish...
Mon, 19 Nov 2018 21:16:14 DEBUG    Produced [puback] event
Mon, 19 Nov 2018 21:16:14 DEBUG    Dispatching [puback] event
Mon, 19 Nov 2018 21:16:14 INFO     Performing sync publish...
Mon, 19 Nov 2018 21:16:14 DEBUG    Produced [puback] event
Mon, 19 Nov 2018 21:16:14 DEBUG    Dispatching [puback] event
Mon, 19 Nov 2018 21:16:19 INFO     Performing sync publish...
Mon, 19 Nov 2018 21:16:19 DEBUG    Produced [puback] event
Mon, 19 Nov 2018 21:16:19 DEBUG    Dispatching [puback] event
Mon, 19 Nov 2018 21:16:19 INFO     Performing sync publish...
Mon, 19 Nov 2018 21:16:19 DEBUG    Produced [puback] event
Mon, 19 Nov 2018 21:16:19 DEBUG    Dispatching [puback] event
Mon, 19 Nov 2018 21:16:19 INFO     Performing sync publish...
Mon, 19 Nov 2018 21:16:19 DEBUG    Produced [puback] event
Mon, 19 Nov 2018 21:16:19 DEBUG    Dispatching [puback] event
Mon, 19 Nov 2018 21:16:19 INFO     Performing sync publish...
Mon, 19 Nov 2018 21:16:19 DEBUG    Produced [puback] event
Mon, 19 Nov 2018 21:16:19 DEBUG    Dispatching [puback] event
Mon, 19 Nov 2018 21:16:19 INFO     Performing sync publish...
Mon, 19 Nov 2018 21:16:19 DEBUG    Produced [puback] event
Mon, 19 Nov 2018 21:16:19 DEBUG    Dispatching [puback] event
Mon, 19 Nov 2018 21:16:24 INFO     Performing sync publish...
Mon, 19 Nov 2018 21:16:24 DEBUG    Produced [puback] event
Mon, 19 Nov 2018 21:16:24 DEBUG    Dispatching [puback] event
Mon, 19 Nov 2018 21:16:24 INFO     Performing sync publish...
Mon, 19 Nov 2018 21:16:24 DEBUG    Produced [puback] event
Mon, 19 Nov 2018 21:16:24 DEBUG    Dispatching [puback] event
Mon, 19 Nov 2018 21:16:24 INFO     Performing sync publish...
Mon, 19 Nov 2018 21:16:24 DEBUG    Produced [puback] event
Mon, 19 Nov 2018 21:16:24 DEBUG    Dispatching [puback] event
Mon, 19 Nov 2018 21:16:24 INFO     Performing sync publish...
Mon, 19 Nov 2018 21:16:24 DEBUG    Produced [puback] event
Mon, 19 Nov 2018 21:16:24 DEBUG    Dispatching [puback] event
Mon, 19 Nov 2018 21:16:24 INFO     Performing sync publish...
Mon, 19 Nov 2018 21:16:24 DEBUG    Produced [puback] event
Mon, 19 Nov 2018 21:16:24 DEBUG    Dispatching [puback] event
Mon, 19 Nov 2018 21:16:29 INFO     Performing sync publish...
Mon, 19 Nov 2018 21:16:29 DEBUG    Produced [puback] event
Mon, 19 Nov 2018 21:16:29 DEBUG    Dispatching [puback] event
Mon, 19 Nov 2018 21:16:29 INFO     Performing sync publish...
Mon, 19 Nov 2018 21:16:29 DEBUG    Produced [puback] event
Mon, 19 Nov 2018 21:16:29 DEBUG    Dispatching [puback] event
Mon, 19 Nov 2018 21:16:29 INFO     Performing sync publish...
Mon, 19 Nov 2018 21:16:29 DEBUG    Produced [puback] event
Mon, 19 Nov 2018 21:16:29 DEBUG    Dispatching [puback] event
Mon, 19 Nov 2018 21:16:29 INFO     Performing sync publish...
Mon, 19 Nov 2018 21:16:29 DEBUG    Produced [puback] event
Mon, 19 Nov 2018 21:16:29 DEBUG    Dispatching [puback] event
Mon, 19 Nov 2018 21:16:29 INFO     Performing sync publish...
Mon, 19 Nov 2018 21:16:29 DEBUG    Produced [puback] event
Mon, 19 Nov 2018 21:16:29 DEBUG    Dispatching [puback] event
Mon, 19 Nov 2018 21:16:34 INFO     Performing sync publish...
Mon, 19 Nov 2018 21:16:34 DEBUG    Produced [puback] event
Mon, 19 Nov 2018 21:16:34 DEBUG    Dispatching [puback] event
Mon, 19 Nov 2018 21:16:34 INFO     Performing sync publish...
Mon, 19 Nov 2018 21:16:34 DEBUG    Produced [puback] event
Mon, 19 Nov 2018 21:16:34 DEBUG    Dispatching [puback] event
Mon, 19 Nov 2018 21:16:34 INFO     Performing sync publish...
Mon, 19 Nov 2018 21:16:34 DEBUG    Dispatching [puback] event
Mon, 19 Nov 2018 21:16:34 DEBUG    Produced [puback] event
Mon, 19 Nov 2018 21:16:34 INFO     Performing sync publish...
Mon, 19 Nov 2018 21:16:34 DEBUG    Produced [puback] event
Mon, 19 Nov 2018 21:16:34 DEBUG    Dispatching [puback] event
Mon, 19 Nov 2018 21:16:34 INFO     Performing sync publish...
Mon, 19 Nov 2018 21:16:34 DEBUG    Produced [puback] event
Mon, 19 Nov 2018 21:16:34 DEBUG    Dispatching [puback] event
