Sat, 02 Feb 2019 13:09:40 DEBUG    Config file loaded : config.py
Sat, 02 Feb 2019 13:09:40 DEBUG    Config file loaded : config.py
Sat, 02 Feb 2019 13:09:41 DEBUG    Config file loaded : config.py
Sat, 02 Feb 2019 13:09:41 DEBUG    MODBUS Config loadedMODBUS.py
