Wed, 30 Jan 2019 19:53:01 DEBUG    Config file loaded : config.py
Wed, 30 Jan 2019 19:53:01 DEBUG    Config file loaded : config.py
Wed, 30 Jan 2019 19:53:01 DEBUG    Config file loaded : config.py
Wed, 30 Jan 2019 19:53:01 DEBUG    MODBUS Config loadedMODBUS.py
Wed, 30 Jan 2019 19:53:01 DEBUG    STARTING MODBUS SENSORS-: main.py
