Sun, 20 Jan 2019 11:18:37 DEBUG    Config file loaded : config.py
Sun, 20 Jan 2019 11:18:37 DEBUG    Config file loaded : config.py
Sun, 20 Jan 2019 11:18:37 DEBUG    Config file loaded : config.py
Sun, 20 Jan 2019 11:18:37 DEBUG    MODBUS Config loadedMODBUS.py
