Sun, 20 Jan 2019 11:22:45 DEBUG    Config file loaded : config.py
Sun, 20 Jan 2019 11:22:45 DEBUG    Config file loaded : config.py
Sun, 20 Jan 2019 11:22:45 DEBUG    Config file loaded : config.py
Sun, 20 Jan 2019 11:22:45 DEBUG    MODBUS Config loadedMODBUS.py
