Sun, 20 Jan 2019 11:52:49 DEBUG    Config file loaded : config.py
Sun, 20 Jan 2019 11:52:49 DEBUG    Config file loaded : config.py
Sun, 20 Jan 2019 11:52:50 DEBUG    Config file loaded : config.py
Sun, 20 Jan 2019 11:52:50 DEBUG    MODBUS Config loadedMODBUS.py
