Sun, 20 Jan 2019 12:04:26 DEBUG    Config file loaded : config.py
Sun, 20 Jan 2019 12:04:26 DEBUG    Config file loaded : config.py
Sun, 20 Jan 2019 12:04:26 DEBUG    Config file loaded : config.py
Sun, 20 Jan 2019 12:04:26 DEBUG    MODBUS Config loadedMODBUS.py
