Sun, 20 Jan 2019 12:21:54 DEBUG    Config file loaded : config.py
Sun, 20 Jan 2019 12:21:54 DEBUG    Config file loaded : config.py
Sun, 20 Jan 2019 12:21:54 DEBUG    Config file loaded : config.py
Sun, 20 Jan 2019 12:21:54 DEBUG    MODBUS Config loadedMODBUS.py
