Sun, 20 Jan 2019 13:03:03 DEBUG    Config file loaded : config.py
Sun, 20 Jan 2019 13:03:03 DEBUG    Config file loaded : config.py
Sun, 20 Jan 2019 13:03:03 DEBUG    Config file loaded : config.py
Sun, 20 Jan 2019 13:03:03 DEBUG    MODBUS Config loadedMODBUS.py
Sun, 20 Jan 2019 13:03:03 DEBUG    STARTING MODBUS SENSORS-: main.py
