Thu, 31 Jan 2019 11:10:43 DEBUG    Config file loaded : config.py
Thu, 31 Jan 2019 11:10:43 DEBUG    Config file loaded : config.py
Thu, 31 Jan 2019 11:10:43 DEBUG    Config file loaded : config.py
Thu, 31 Jan 2019 11:10:43 DEBUG    MODBUS Config loadedMODBUS.py
