Thu, 31 Jan 2019 10:45:04 DEBUG    Config file loaded : config.py
Thu, 31 Jan 2019 10:45:04 DEBUG    Config file loaded : config.py
Thu, 31 Jan 2019 10:45:05 DEBUG    Config file loaded : config.py
Thu, 31 Jan 2019 10:45:05 DEBUG    MODBUS Config loadedMODBUS.py
Thu, 31 Jan 2019 10:45:05 DEBUG    STARTING MODBUS SENSORS-: main.py
