Mon, 28 Jan 2019 12:11:07 DEBUG    Config file loaded : config.py
Mon, 28 Jan 2019 12:11:07 DEBUG    Config file loaded : config.py
Mon, 28 Jan 2019 12:11:07 DEBUG    Config file loaded : config.py
Mon, 28 Jan 2019 12:11:07 DEBUG    Changing event name from creating-client-class.iot-data to creating-client-class.iot-data-plane
Mon, 28 Jan 2019 12:11:07 DEBUG    Changing event name from before-call.apigateway to before-call.api-gateway
Mon, 28 Jan 2019 12:11:07 DEBUG    Changing event name from request-created.machinelearning.Predict to request-created.machine-learning.Predict
Mon, 28 Jan 2019 12:11:07 DEBUG    Changing event name from before-parameter-build.autoscaling.CreateLaunchConfiguration to before-parameter-build.auto-scaling.CreateLaunchConfiguration
Mon, 28 Jan 2019 12:11:07 DEBUG    Changing event name from before-parameter-build.route53 to before-parameter-build.route-53
Mon, 28 Jan 2019 12:11:07 DEBUG    Changing event name from request-created.cloudsearchdomain.Search to request-created.cloudsearch-domain.Search
Mon, 28 Jan 2019 12:11:07 DEBUG    Changing event name from docs.*.autoscaling.CreateLaunchConfiguration.complete-section to docs.*.auto-scaling.CreateLaunchConfiguration.complete-section
Mon, 28 Jan 2019 12:11:07 DEBUG    Changing event name from before-parameter-build.logs.CreateExportTask to before-parameter-build.cloudwatch-logs.CreateExportTask
Mon, 28 Jan 2019 12:11:07 DEBUG    Changing event name from docs.*.logs.CreateExportTask.complete-section to docs.*.cloudwatch-logs.CreateExportTask.complete-section
Mon, 28 Jan 2019 12:11:07 DEBUG    Changing event name from before-parameter-build.cloudsearchdomain.Search to before-parameter-build.cloudsearch-domain.Search
Mon, 28 Jan 2019 12:11:07 DEBUG    Changing event name from docs.*.cloudsearchdomain.Search.complete-section to docs.*.cloudsearch-domain.Search.complete-section
Mon, 28 Jan 2019 12:11:07 DEBUG    Loading variable profile from defaults.
Mon, 28 Jan 2019 12:11:07 DEBUG    Loading variable config_file from defaults.
Mon, 28 Jan 2019 12:11:07 DEBUG    Loading variable credentials_file from defaults.
Mon, 28 Jan 2019 12:11:07 DEBUG    Loading variable data_path from defaults.
Mon, 28 Jan 2019 12:11:08 DEBUG    Loading JSON file: C:\python3\lib\site-packages\boto3\data\s3\2006-03-01\resources-1.json
Mon, 28 Jan 2019 12:11:08 DEBUG    Loading variable profile from defaults.
Mon, 28 Jan 2019 12:11:08 DEBUG    Loading variable profile from defaults.
Mon, 28 Jan 2019 12:11:08 DEBUG    Loading variable region from config file with value 'us-east-1'.
Mon, 28 Jan 2019 12:11:08 DEBUG    Loading variable profile from defaults.
Mon, 28 Jan 2019 12:11:08 DEBUG    Loading variable ca_bundle from defaults.
Mon, 28 Jan 2019 12:11:08 DEBUG    Loading JSON file: C:\python3\lib\site-packages\botocore\data\endpoints.json
Mon, 28 Jan 2019 12:11:08 DEBUG    Loading variable profile from defaults.
Mon, 28 Jan 2019 12:11:08 DEBUG    Event choose-service-name: calling handler <function handle_service_name_alias at 0x0000026DBB75BE18>
Mon, 28 Jan 2019 12:11:08 DEBUG    Loading JSON file: C:\python3\lib\site-packages\botocore\data\s3\2006-03-01\service-2.json
Mon, 28 Jan 2019 12:11:08 DEBUG    Event creating-client-class.s3: calling handler <function add_generate_presigned_post at 0x0000026DBB865510>
Mon, 28 Jan 2019 12:11:08 DEBUG    Event creating-client-class.s3: calling handler <function lazy_call.<locals>._handler at 0x0000026DBB9282F0>
Mon, 28 Jan 2019 12:11:08 DEBUG    Event creating-client-class.s3: calling handler <function add_generate_presigned_url at 0x0000026DBB8652F0>
Mon, 28 Jan 2019 12:11:08 DEBUG    The s3 config key is not a dictionary type, ignoring its value of: None
Mon, 28 Jan 2019 12:11:08 DEBUG    Setting s3 timeout as (60, 60)
Mon, 28 Jan 2019 12:11:08 DEBUG    Loading JSON file: C:\python3\lib\site-packages\botocore\data\_retry.json
Mon, 28 Jan 2019 12:11:08 DEBUG    Registering retry handlers for service: s3
Mon, 28 Jan 2019 12:11:08 DEBUG    Defaulting to S3 virtual host style addressing with path style addressing fallback.
Mon, 28 Jan 2019 12:11:08 DEBUG    Loading s3:s3
Mon, 28 Jan 2019 12:11:08 DEBUG    Config file loaded : config.py
Mon, 28 Jan 2019 12:11:08 DEBUG    MODBUS Config loadedMODBUS.py
