Mon, 28 Jan 2019 12:42:41 DEBUG    Config file loaded : config.py
Mon, 28 Jan 2019 12:42:41 DEBUG    Config file loaded : config.py
Mon, 28 Jan 2019 12:42:41 DEBUG    Config file loaded : config.py
Mon, 28 Jan 2019 12:42:41 DEBUG    MODBUS Config loadedMODBUS.py
