Mon, 28 Jan 2019 12:24:25 DEBUG    Config file loaded : config.py
Mon, 28 Jan 2019 12:24:25 DEBUG    Config file loaded : config.py
Mon, 28 Jan 2019 12:24:25 DEBUG    Config file loaded : config.py
Mon, 28 Jan 2019 12:24:25 DEBUG    MODBUS Config loadedMODBUS.py
